<?xml version="1.0" encoding="utf-8"?>
<!-- Generator: Adobe Illustrator 16.0.0, SVG Export Plug-In . SVG Version: 6.00 Build 0)  -->
<!DOCTYPE svg PUBLIC "-//W3C//DTD SVG 1.1//EN" "http://www.w3.org/Graphics/SVG/1.1/DTD/svg11.dtd">
<svg version="1.1" id="Ebene_1" xmlns="http://www.w3.org/2000/svg" xmlns:xlink="http://www.w3.org/1999/xlink" x="0px" y="0px"
	 width="500px" height="328.483px" viewBox="0 0 500 328.483" enable-background="new 0 0 500 328.483" xml:space="preserve">
<path fill-rule="evenodd" clip-rule="evenodd" d="M39.485,253.186c1.445-1.325,2.3-2.108,3.161-2.897
	c1.857,2.854,1.565,6.009-0.775,8.305c-0.603,0.592-1.283,1.117-1.978,1.602c-3.04,2.117-5.974,4.253-8.62,6.972
	c-3.749,3.854-8.698,4.729-13.987,3.12c-0.875-0.267-1.997-0.123-2.898,0.165c-3.223,1.029-6.399,2.202-9.594,3.32
	c-0.206-0.159-0.413-0.317-0.619-0.477c1.34-3.255,2.681-6.512,4.086-9.927c-0.859-0.503-1.966-1.15-3.259-1.907
	c4.015-5.433,9.173-8.02,16.039-7.583c0.733-6.731,3.056-13.042,7.021-18.72c-3.245-3.689-7.305-5.68-11.873-7.129
	c2.542-7.398,5.074-14.643,10.68-20.581c-1.68-1.48-3.245-2.86-4.766-4.201c1.813-1.893,3.307-3.591,4.945-5.134
	c5.898-5.554,11.657-11.281,17.856-16.48c3.037-2.546,6.968-4.007,10.41-6.1c1.109-0.674,2.37-1.619,2.836-2.742
	c2.89-6.958,2.937-14.11,0.826-21.284c-0.303-1.029-1.08-1.919-1.665-2.921c2.825-2.69,5.733-5.46,8.729-8.314
	c0.339,0.394,0.745,0.867,1.416,1.646c6.653-3.955,13.362-7.943,20.175-11.993c-0.99-0.86-1.868-1.625-2.697-2.346
	c3.843-3.426,7.742-6.703,11.416-10.216c8.308-7.945,15.337-16.958,21.586-26.584c1.366-2.104,2.707-4.143,5.144-5.155
	c0.396-0.165,0.7-0.548,1.474-1.178c-6.412-1.11-12.395,0.087-18.542-0.005c0.324-4.065,1.67-7.28,5.26-9.334
	c0.833-0.476,1.569-1.283,2.095-2.101c1.34-2.085,2.481-4.298,3.799-6.399c3.6-5.737,8.988-7.718,15.48-7.058
	c3.044,0.31,6.056,0.923,9.326,1.436c-0.998,2.814-1.919,5.414-3.06,8.634c2.262-0.263,4.124-0.48,6.215-0.723
	c0.318,0.688,0.745,1.61,1.224,2.645c3.805-1.973,7.873-1.812,11.905-1.943c3.226-0.105,6.174-0.861,8.265-3.914
	c-1.064-0.496-1.99-0.927-3.142-1.463c0.651-1.563,1.285-3.086,2.002-4.811c2.228,1.889,4.255,4.338,7.384,1.483
	c-0.382-0.801-0.764-1.602-1.217-2.551c0.52-0.369,1.068-0.757,1.698-1.203c-0.794-0.639-1.544-1.241-2.42-1.946
	c3.59-3.364,6.867-7.172,12.136-7.381c2.134-0.084,3.673-0.527,5.043-2.157c1.159-1.377,2.839-1.157,4.378-0.689
	c0.356,0.108,0.685,0.738,0.786,1.183c0.596,2.625-0.29,4.722-2.75,6.373c2.514,0.898,4.751,0.892,6.882-0.054
	c2.979-1.323,5.877-2.828,8.812-4.25c0.646-0.313,1.285-0.652,1.957-0.9c3.815-1.414,5.991-2.776,8.797,2.642
	c0.792,1.529,2.081,1.736,3.655,1.542c3.626-0.445,7.273-0.719,10.895-1.195c1.709-0.225,3.478-0.521,5.046-1.19
	c3.9-1.665,7.801-3.38,11.512-5.419c3.355-1.843,6.51-1.478,9.727-0.019c2.495,1.132,4.898,2.467,7.387,3.616
	c2.898,1.338,5.892,1.429,9.174,0.439c-0.801-1.505-1.522-2.862-2.198-4.132c2.204-1.311,4.395-2.614,6.584-3.917
	c-0.1-0.222-0.198-0.443-0.298-0.666c-1.413,0.253-2.826,0.506-4.441,0.795c-1.017-3.795-4.282-4.877-8.052-5.989
	c2.612-1.353,2.798-3.53,3.449-5.579c1.602-5.039,4.101-9.544,9.303-11.707c1.511-0.628,3.275-0.646,5.072-0.972
	c-0.181-1.127-0.381-2.377-0.574-3.583c2.688,0,5.2,0,7.848,0c0.214,2.098,0.405,3.978,0.597,5.858
	c0.24-0.011,0.481-0.022,0.722-0.033c0.025-0.474,0.131-0.96,0.063-1.42c-0.448-3.042-0.461-3.04,2.762-4.134
	c0.946,1.468,1.852,3.041,2.938,4.477c0.42,0.554,1.222,1.054,1.901,1.132c2.285,0.264,3.598,1.636,4.666,3.569
	c-1.078,0.726-2.116,1.425-3.501,2.357c1.126,0.808,1.931,1.386,2.934,2.106c-0.256,1.016-0.553,2.191-0.871,3.455
	c1.65,0.502,3.245,0.987,4.962,1.509c0.14-0.54,0.261-1.006,0.403-1.556c-1.029-0.301-1.953-0.572-2.839-0.831
	c-0.319-3.643,0.969-5.489,4.194-6.703c2.667,2.275,5.194,4.27,7.518,6.48c1.21,1.151,0.259,1.99-0.802,2.313
	c0.929,1.407,1.749,2.786,2.722,4.048c0.322,0.418,1.073,0.813,1.563,0.746c3.353-0.462,6.781-0.725,10.009-1.661
	c7.373-2.138,14.395-1.865,21.286,1.708c4.746,2.461,9.665,4.589,14.411,7.052c1.649,0.855,3.244,2.073,4.426,3.491
	c0.857,1.03,0.979,2.667,1.456,4.023c0.438,1.249,0.61,2.745,1.421,3.681c3.262,3.764,11.015,5.38,15.718,3.651
	c0.696-0.256,1.831,0.038,2.5,0.477c1.907,1.253,3.626,2.789,5.519,4.067c1.602,1.082,3.341,1.958,5.255,3.062
	c-0.275,3.227-2.536,7.157,1.438,9.872c-2.875,3.253-5.886,6.243-8.401,9.603c-3.937,5.259-6.639,11.217-8.83,17.406
	c-1.139,3.213-1.076,6.399-0.126,9.619c0.463,1.565,0.879,3.145,1.377,4.699c0.928,2.898,0.67,5.54-1.518,7.83
	c-0.31,0.324-0.54,0.723-0.628,1.443c1.422-0.588,2.845-1.176,4.488-1.856c0.819,3.231,3.121,2.785,5.518,2.586
	c5.676-0.47,10.926,1.58,16.273,3.027c3.647,0.987,7.272,2.341,11.14,1.704c1.764-0.291,3.464-0.973,5.321-1.514
	c-0.332,1.719-3.271,3.975,0.965,4.856c-0.808,1.487-1.599,2.747-2.199,4.092c-1.417,3.18-0.827,4.905,2.321,6.31
	c2.138,0.953,4.391,1.657,6.62,2.387c3.54,1.159,6.681,2.746,8.936,5.96c2.014,2.87,5.226,3.397,8.458,2.877
	c2.823-0.454,5.593-1.286,8.34-2.107c0.484-0.145,1.002-1.036,1.054-1.623c0.283-3.161,0.424-6.334,0.621-9.621
	c2.881,0.582,5.325,1.076,8.476,1.711c-2.492-3.271-0.369-5.036,1.13-6.798c1.342-1.577,2.931-2.979,4.572-4.25
	c0.829-0.642,2.114-1.299,3.021-1.112c1.871,0.385,3.796,1.474,4.065,3.516c0.254,1.937,1.459,2.382,2.792,3.158
	c3.177,1.848,4.342,4.982,4.629,8.415c0.511,6.12-0.852,11.799-4.415,16.893c-0.314,0.451-0.56,1.21-0.407,1.688
	c1.445,4.523,1.144,5.511-2.934,8.463c0.805,1.282,1.619,2.58,2.514,4.007c-0.729,0.481-1.435,0.914-2.104,1.395
	c-2.557,1.831-2.986,5.187-0.902,7.553c0.264,0.3,1.105,0.456,1.447,0.264c2.65-1.487,4.667-0.679,6.377,1.555
	c0.157,0.205,0.352,0.407,0.574,0.53c3.376,1.866,3.449,4.685,2.167,7.8c-1.23,2.992-2.589,5.932-3.855,8.812
	c-0.604-0.141-0.755-0.13-0.829-0.199c-2.603-2.46-5.563-2.869-9.113-2.456c-6.832,0.794-11.903-2.183-14.86-8.473
	c-0.861-1.834-2.688-2.072-4.102-1.977c-2.83,0.191-5.622,0.977-8.417,1.577c-0.291,0.062-0.589,0.481-0.727,0.803
	c-1.576,3.654-3.314,7.256-4.6,11.013c-0.718,2.098-1.001,4.474-0.895,6.696c0.188,3.95,2.302,6.701,6.189,7.933
	c1.242,0.394,2.48,0.817,3.686,1.312c1.829,0.751,2.877,2.124,3.253,4.098c0.335,1.759,0.191,3.027-1.674,4.009
	c-2.761,1.451-3.459,3.563-2.303,6.439c0.85,2.112,2.004,4.102,3.027,6.144c0.205,0.408,0.448,0.797,0.648,1.208
	c2.563,5.286,1.258,8.417-4.233,10.598c-3.203,1.271-6.165,1.585-8.852-1.36c0.122-0.346,0.316-0.879,0.501-1.415
	c1.071-3.126,0.016-4.857-3.295-5.411c-3.187-0.533-3.188-0.533-3.675-3.739c-0.099-0.646-0.209-1.292-0.271-1.941
	c-0.438-4.681-0.434-4.681-3.214-7.87c-2.091-0.299-3.794-0.543-6-0.858c-10.69,6.118-10.861,6.177-15.644,5.16
	c-0.331,0.803-0.633,1.646-1.019,2.449c-2.882,6.019-9.376,8.573-16.693,6.578c-0.692-0.188-1.377-0.405-2.063-0.613
	c-1.866-0.566-3.227-1.52-4.143-3.451c-1.081-2.277-2.604-4.387-4.171-6.385c-3.653-4.66-5.062-9.924-4.771-15.758
	c0.099-1.993,0.016-3.996,0.016-6.049c-1.953,1.161-2.256,1.64-3.474,5.394c-3.012-0.011-5.451-1.613-6.506-4.609
	c-0.435-1.233-1.138-1.654-2.133-1.251c-1.641,0.665-3.215,1.528-4.734,2.443c-0.514,0.309-0.806,1.013-1.151,1.565
	c-1.61,2.58-3.123,4.789-0.676,8.138c2.684,3.672,2.779,8.327,2.117,12.842c-0.161,1.1-0.321,2.2-0.545,3.287
	c-1.013,4.914-2.048,9.823-3.119,14.945c-2.301-0.574-2.988,0.897-3.754,2.858c-2.318,5.941-7.135,9.709-12.231,13.114
	c-1.186,0.793-1.71,1.385-1.218,2.927c0.896,2.807-0.074,5.06-2.535,6.785c-1.698,1.19-3.307,2.548-4.775,4.012
	c-1.089,1.084-1.427,2.387-0.195,3.82c1.363,1.587,0.734,3.222-0.457,4.601c-0.783,0.906-0.693,1.609-0.129,2.575
	c2.354,4.034,5.855,6.78,9.763,8.867c-1.848,3.659-3.636,7.251-5.468,10.82c-1.938,3.771-3.751,4.437-7.605,2.544
	c-2.114-1.038-4.066-2.014-6.47-0.818c-0.85,0.423-1.749-0.776-1.42-1.788c2.453-7.541-0.041-13.877-4.98-19.462
	c-2.272-2.57-5.268-3.822-8.837-2.937c-0.29,0.072-0.614,0.01-1.432,0.01c1.306-2.194,2.412-4.088,3.552-5.961
	c1.051-1.728,2.204-3.396,3.185-5.162c0.762-1.373,0.649-2.772-0.479-3.981c-1.013-1.084-2.008-1.829-3.724-1.264
	c-2.775,0.912-4.751-0.584-6.523-2.978c-0.791,1.168-1.487,2.196-2.278,3.364c-3.279-3.115-6.991-4.849-11.671-3.564
	c-3.743-7.483-6.557-15.786-16.381-17.651c-0.076-1.302-0.133-2.654-2.055-2.51c-0.262,0.02-0.757-0.775-0.856-1.253
	c-0.884-4.231-0.344-8.442,0.23-12.66c0.693-5.103,1.818-10.187,1.02-15.387c-0.195-1.271-0.488-2.525-0.769-3.952
	c-5.46,1.401-10.345,3.365-14.422,6.892c0.049,0.307,0.026,0.462,0.094,0.55c2.676,3.549,2.734,4.555-1.036,8.268
	c-3.496,3.442-6.905,6.979-11.385,9.19c-0.758,0.373-1.554,0.714-2.37,0.905c-0.993,0.232-2.275-0.044-2.995,0.49
	c-1.762,1.304-3.271,2.948-4.952,4.521c4.147,3.328,6.92,7.32,7.79,12.478c0.065,0.386,0.139,0.772,0.168,1.163
	c0.367,4.906-0.086,5.753-4.521,7.923c-2.107,1.031-4.246,2.018-6.431,2.872c-2.37,0.927-3.512,2.673-3.071,5.044
	c0.935,5.026-2.725,8.359-4.359,12.42c-0.257,0.639-1.736,0.84-2.686,1.118c-0.401,0.118-0.896-0.105-1.352-0.142
	c-1.748-0.138-3.676-1.525-5.197,0.086c-1.949,2.064-3.429,4.49-3.035,7.563c0.139,1.08,0.373,2.146,0.499,2.861
	c-3.105,0.582-6.083,1.145-9.064,1.694c-0.249,0.046-0.529,0.072-0.766,0.005c-2.509-0.705-5.016-1.422-7.517-2.157
	c-1.711-0.503-3.088-1.218-3.235-3.385c-0.044-0.652-1.045-1.595-1.772-1.788c-5.338-1.426-10.858-1.943-15.868,0.623
	c-5.435,2.784-10.474,6.335-15.725,9.485c-0.473,0.284-1.317,0.283-1.852,0.07c-2.18-0.867-4.319-1.839-6.447-2.83
	c-1.328-0.618-2.344-0.501-3.086,0.884c-0.274,0.513-0.74,0.919-1.046,1.418c-0.935,1.523-1.874,2.542-4.031,1.841
	c-1.668-0.543-3.152,0.816-4.029,2.988c-0.262,0.65-0.478,1.319-0.719,1.989c-5.704-2.875-5.704-2.875-11.833,0.602
	c-2.097-5.084-4.146-10.115-6.273-15.113c-0.205-0.481-0.844-0.851-1.361-1.115c-2.16-1.104-2.7-2.909-1.323-4.579
	c-2.736-3.875-5.471-7.747-8.205-11.618c-3.438,2.568-4.611,2.695-7.712,0.734c1.01-3.291,2.036-6.634,3.065-9.987
	c-1.803-0.184-3.499-0.268-5.162-0.545c-4.587-0.764-6.279-3.508-4.727-7.882c0.715-2.018,1.811-3.901,2.76-5.833
	c0.662-1.348,1.333-2.691,2.058-4.006c1.941-3.523,1.062-6.684-1.261-9.612c-1.38-1.739-2.842-3.417-4.346-5.051
	c-2.181-2.367-2.181-4.837-0.674-7.541c1.265-2.27,2.396-4.614,3.805-7.353c-3.764-0.747-7.169-1.573-10.621-2.079
	c-9.434-1.385-18.88-1.593-28.274,0.348c-7.157,1.479-13.816,4.071-18.881,9.604c-1.609,1.757-2.761,3.933-4.126,5.913
	c-0.584,0.847-0.452,1.428,0.39,2.126c1.576,1.306,1.779,2.851,1.09,4.912C37.864,249.857,38.911,251.375,39.485,253.186z
	 M401.734,74.931c-1.99-2.264-1.761-4.712-1.376-7.227c0.102-0.657,0.03-1.701-0.383-2.018c-2.794-2.14-5.689-4.15-8.588-6.15
	c-0.346-0.239-0.963-0.336-1.361-0.208c-6.332,2.023-11.828,0.083-16.872-3.642c-1.787-1.32-2.965-3.235-2.624-5.595
	c0.217-1.502-0.266-2.583-1.351-3.439c-1.177-0.927-2.356-1.914-3.685-2.574c-5.141-2.555-10.368-4.935-15.512-7.483
	c-5.5-2.726-11.153-2.943-16.979-1.374c-1.64,0.441-3.286,0.854-4.936,1.254c-3.461,0.839-6.939,1.217-10.489,0.542
	c-1.345-0.255-1.552-0.87-1.108-2.067c0.163-0.439,0.087-1.354-0.183-1.502c-1.683-0.927-2.464-2.139-1.885-4.09
	c0.078-0.262-0.208-0.741-0.46-0.974c-1.478-1.365-2.995-2.687-4.705-4.207c-0.47,0.635-1.149,1.553-1.972,2.663
	c1.517,0.413,2.61,0.711,3.784,1.031c-0.588,2.115-1.12,4.027-1.545,5.556c-2.745-0.722-5.269-1.624-7.866-1.984
	c-1.689-0.233-3.484,0.416-5.239,0.475c-0.614,0.021-1.646-0.401-1.802-0.856c-0.475-1.382-0.614-2.878-0.911-4.472
	c2.166-0.311,4.066-0.583,6.039-0.866c0.354,1.293,0.654,2.394,1.059,3.871c0.684-1.557,1.476-2.562-0.179-3.761
	c-1.479-1.071-1.419-2.582-0.137-3.883c0.391-0.396,0.99-0.588,1.494-0.873c-0.143-0.271-0.285-0.541-0.428-0.811
	c-1.173-0.067-2.346-0.134-3.771-0.215c-0.407-0.636-0.965-1.509-1.526-2.381c-0.588-0.915-1.18-1.829-1.77-2.744
	c-0.202,0.618-0.139,1.118-0.061,1.614c0.236,1.495-0.938,3.848-1.942,3.538c-1.133-0.352-2.101-1.47-2.937-2.432
	c-0.347-0.399-0.165-1.258-0.221-1.908c-0.048-0.564-0.093-1.129-0.146-1.772c-1.277,0-2.41,0-3.665,0
	c0.307,1.653,0.586,3.163,0.901,4.863c-0.735-0.232-1.224-0.373-1.704-0.54c-3.174-1.104-5.978-0.317-8.334,1.894
	c-3.094,2.903-4.947,6.522-5.633,10.729c-0.118,0.725-0.333,1.435-0.492,2.104c1.083,0.773,2.588,1.331,3.218,2.402
	c1.342,2.281,3.068,2.142,5.101,1.524c0.495-0.15,0.996-0.28,1.622-0.456c-0.992-1.293-0.428-2.068,0.84-2.283
	c2.67-0.452,5.358-0.883,8.056-1.049c0.823-0.05,1.85,0.637,2.522,1.266c1.145,1.068,1.118,3.937-0.144,5.039
	c-0.54,0.472-1.706,0.227-2.684,0.316c0.122,0.618,0.376,1.629,0.51,2.655c0.219,1.682-0.21,3.431-1.727,4.042
	c-0.976,0.394-2.433-0.406-3.19-0.568c-0.193-1.442-0.022-2.81-0.478-3.067c-1.342-0.756-3.1-1.728-4.383-1.399
	c-1.675,0.43-3.052,2.025-4.608,3.156c0.736,1.387,1.458,2.748,2.249,4.238c-4.469,1.798-8.758,2.164-13.053,0.182
	c-2.487-1.149-4.879-2.51-7.375-3.637c-2.592-1.17-5.106-1.372-7.854,0.081c-4.207,2.224-8.605,4.094-12.974,5.993
	c-1.158,0.503-2.497,0.659-3.772,0.805c-3.759,0.431-7.54,0.691-11.291,1.186c-2.55,0.337-4.073-0.183-5.526-2.349
	c-2.425-3.614-2.433-3.632-6.542-1.909c-1.322,0.555-2.591,1.232-3.886,1.853c-2.294,1.1-4.536,2.332-6.895,3.268
	c-4.95,1.965-9.242,0.194-13.68-2.694c1.414-0.191,2.482-0.203,3.46-0.505c1.027-0.317,2.229-0.695,2.865-1.456
	c0.536-0.64,0.369-1.867,0.514-2.834c-0.827,0.303-1.722,0.494-2.461,0.942c-0.71,0.43-1.203,1.208-1.897,1.677
	c-0.431,0.291-1.089,0.472-1.594,0.389c-4.915-0.808-7.987,2.173-11.286,5.18c1.172,0.882,2.136,1.606,3.263,2.454
	c-1.127,0.63-2.018,1.128-2.946,1.647c0.357,0.76,0.677,1.441,1.235,2.628c-2.12,1.032-4.131,2.011-6.305,3.069
	c0.013-0.106,0.093,0.423-0.12,0.779c-1.83,3.061-4.36,5.125-8.014,5.68c-5.272,0.801-10.96-0.549-15.637,3.33
	c-0.551-1.336-0.971-2.352-1.266-3.068c-2.589-0.197-4.942-0.375-7.667-0.582c1.032-3.079,1.894-5.649,2.904-8.664
	c-3.415-0.249-6.641-0.614-9.875-0.687c-4.565-0.104-8.042,2.035-10.469,5.818c-1.478,2.305-2.695,4.777-4.166,7.087
	c-0.549,0.863-1.377,1.675-2.268,2.169c-2.296,1.274-3.759,3.029-4.132,5.362c3.178,0,6.237-0.062,9.293,0.02
	c2.337,0.063,4.711,0.097,6.993,0.538c2.007,0.388,2.306,2.009,0.871,3.491c-0.406,0.418-0.862,0.844-1.378,1.088
	c-2.245,1.057-3.503,2.991-4.809,4.976c-6.231,9.471-13.127,18.419-21.341,26.278c-3.25,3.109-6.627,6.085-10.021,9.19
	c1.016,0.841,2.067,1.71,3.201,2.649c-2.401,1.34-4.741,2.608-7.044,3.939c-5.37,3.103-10.707,6.263-16.104,9.319
	c-0.669,0.379-1.616,0.266-2.967,0.456c-1.384,1.305-3.233,3.048-4.847,4.57c0.637,2.858,1.471,5.542,1.796,8.286
	c0.605,5.102,0.309,10.179-1.374,15.104c-0.984,2.882-2.678,4.949-5.729,5.935c-1.836,0.594-3.583,1.588-5.229,2.625
	c-6.638,4.184-12.01,9.852-17.593,15.262c-2.416,2.341-4.725,4.791-7.525,7.643c1.675,1.36,3.283,2.667,4.975,4.042
	c-5.716,5.536-8.533,12.28-10.876,19.394c4.764,1.61,8.585,4.336,11.6,7.789c-1.822,3.611-3.885,6.913-5.183,10.493
	c-1.32,3.641-1.886,7.556-2.783,11.354c-5.857-1.304-11.726,0.532-14.155,4.521c1.048,0.609,2.096,1.218,3.042,1.767
	c-1.435,2.664-2.772,5.149-4.11,7.636c0.151,0.159,0.302,0.318,0.453,0.479c1.924-0.723,3.927-1.292,5.75-2.214
	c1.643-0.832,3.062-0.89,4.814-0.296c4.56,1.545,8.894,0.576,12.058-2.894c2.122-2.326,4.448-4.162,7.016-5.838
	c1.092-0.713,2.24-1.415,3.124-2.348c0.753-0.796,1.164-1.915,1.726-2.892c-0.173-0.104-0.345-0.21-0.518-0.314
	c-0.627,0.534-1.254,1.067-2.025,1.724c-1.527-2.219-2.986-4.339-4.407-6.403c2.296-2.693,2.263-2.81-1.802-5.902
	c1.86-2.826,3.477-5.913,5.68-8.503c5.04-5.922,11.897-8.778,19.304-10.426c11.019-2.45,22.07-2.05,33.101-0.072
	c3.11,0.558,6.174,1.376,9.524,2.135c-0.725,1.896-1.232,3.441-1.9,4.914c-0.863,1.901-1.842,3.749-2.794,5.607
	c-0.729,1.425-0.664,2.728,0.413,3.972c1.667,1.926,3.362,3.834,4.935,5.835c2.677,3.407,3.481,7.103,1.416,11.143
	c-1.396,2.731-2.873,5.429-4.139,8.22c-2.314,5.1-1.043,7.085,4.597,7.334c1.783,0.079,3.573,0.013,5.468,0.013
	c-1.192,3.854-2.333,7.543-3.493,11.291c3.21,0.685,3.936-2.076,5.443-3.425c3.586,5.118,7.126,10.171,10.708,15.283
	c-0.116,0.14-0.37,0.438-0.617,0.741c-0.236,0.291-0.465,0.588-0.987,1.249c1.286,0.419,2.311,0.753,3.518,1.146
	c-0.123,5.458,3.328,9.686,5.703,14.507c3.097-1.958,6.227-2.078,9.532-0.48c1.063-2.245,2.61-4.21,5.12-4.016
	c2.196,0.171,3.174-0.837,4.146-2.354c0.352-0.549,0.823-1.023,1.159-1.581c0.571-0.948,1.27-1.143,2.301-0.716
	c2.469,1.023,4.958,2.002,7.466,2.924c0.521,0.191,1.3,0.294,1.726,0.042c4.771-2.818,9.409-5.873,14.257-8.549
	c5.902-3.26,12.229-2.766,18.465-1.142c1.172,0.306,2.667,1.707,2.881,2.819c0.343,1.792,1.309,2.19,2.687,2.515
	c1.333,0.314,2.753,0.452,3.975,1.016c3.396,1.564,6.386-0.792,9.605-0.424c0-1.279-0.07-2.195,0.013-3.099
	c0.291-3.168,1.918-5.717,4.194-7.74c1.805-1.604,3.993-0.449,6.017-0.134c0.516,0.08,1.047,0.221,1.552,0.164
	c0.4-0.045,1.03-0.27,1.116-0.55c1.102-3.6,4.368-6.382,3.761-10.658c-0.487-3.434,1.011-5.884,4.343-7.245
	c2.715-1.108,5.32-2.48,7.984-3.715c1.207-0.56,1.665-1.464,1.712-2.797c0.162-4.628-1.37-8.603-4.524-11.928
	c-1.376-1.45-2.951-2.711-4.481-4.1c2.386-2.227,4.714-4.423,7.077-6.581c0.291-0.266,0.832-0.551,1.145-0.456
	c2.275,0.691,4.226-0.188,5.841-1.505c3.385-2.761,6.658-5.67,9.836-8.668c2.191-2.068,2.114-2.2,0.395-4.707
	c-0.845-1.232-1.141-2.455,0.073-3.507c4.863-4.217,10.598-6.486,16.919-7.604c2.07,5.372,1.934,10.66,1.286,16.026
	c-0.595,4.921-1.021,9.864-1.431,14.805c-0.071,0.863,0.065,2.366,0.515,2.545c2.291,0.911,3.148,3.503,5.736,4.241
	c1.984,0.566,3.995,2.166,5.27,3.854c2.456,3.255,4.376,6.912,6.579,10.364c0.359,0.562,1.046,1.339,1.551,1.317
	c3.417-0.146,6.429,0.856,9.002,2.778c1.338-1.086,2.568-2.084,3.924-3.185c0.292,0.644,0.421,0.935,0.554,1.224
	c1.361,2.947,2.598,3.492,5.732,2.551c0.364-0.109,0.776-0.235,1.132-0.171c3.369,0.616,5.746,4.744,4.368,7.901
	c-0.854,1.956-2.128,3.731-3.247,5.567c-0.583,0.957-1.239,1.869-1.949,2.931c9.524,0.772,16.28,13.435,14.399,23.474
	c1.993,0.688,3.919,1.355,5.846,2.016c0.739,0.253,1.479,0.503,2.227,0.728c1.113,0.336,1.872-0.063,2.385-1.107
	c1.689-3.439,3.408-6.865,4.876-9.814c-3.271-3.325-6.338-6.442-9.251-9.401c-0.184,0.409-0.57,1.271-1.004,2.234
	c-1.31-0.556-2.369-1.005-3.544-1.503c0.569-1.782,1.091-3.417,1.595-4.997c0.379,0.029,0.53-0.001,0.633,0.056
	c0.669,0.377,1.328,0.772,1.977,1.154c2.318-2.139,2.198-2.172,1.053-5.03c-0.403-1.005-0.387-2.636,0.183-3.477
	c1.179-1.741,2.687-3.37,4.363-4.643c4.194-3.184,4.386-3.498,2.528-8.43c-0.041-0.11-0.005-0.249-0.005-0.436
	c1.929-1.379,3.935-2.72,5.838-4.193c4.407-3.414,8.244-7.264,9.567-12.981c0.093-0.404,0.699-0.818,1.154-0.979
	c0.574-0.202,1.239-0.146,1.756-0.191c0.961-4.538,1.883-8.877,2.799-13.217c1.1-5.215,1.867-10.719-1.469-15.137
	c-2.88-3.812-1.37-6.435,0.569-9.476c0.141-0.221,0.295-0.433,0.429-0.657c2.461-4.132,6.163-5.36,10.788-4.626
	c0.435,2.38,1.126,4.587,3.887,5.473c1.187-3.293,3.334-5.529,6.824-6.584c0,3.286,0.038,6.402-0.009,9.519
	c-0.067,4.511,0.35,8.871,3.124,12.694c1.727,2.379,3.678,4.683,4.908,7.311c1.354,2.893,3.602,3.873,6.356,4.444
	c7.771,1.612,12.883-1.537,14.849-9.159c0.097-0.376,0.187-0.754,0.149-0.605c2.328,0.243,4.554,0.814,6.694,0.591
	c1.657-0.174,3.276-1.228,4.795-2.096c2.258-1.29,4.412-2.763,6.751-4.247c1.516,2.442,3.359,2.122,4.759,0.829
	c1.657,1.504,2.946,2.965,4.52,3.99c0.938,0.611,1.174,1.069,1.105,2.109c-0.136,2.071-0.092,4.154-0.093,6.233
	c-0.001,1.518,0.616,2.232,2.3,2.451c3.17,0.414,5.006,2.229,5.146,4.759c0.059,1.076-0.244,2.172-0.378,3.222
	c1.141,1.296,2.468,1.172,3.948,0.759c6.23-1.733,7.189-3.888,4.254-9.587c-1.165-2.26-2.393-4.513-3.278-6.886
	c-1.246-3.339-0.251-5.962,2.675-8.021c1.922-1.354,1.813-3.559-0.319-4.685c-1.086-0.573-2.29-0.951-3.474-1.306
	c-5.053-1.513-7.869-4.97-8.013-10.137c-0.076-2.723,0.538-5.573,1.394-8.185c1.214-3.706,2.906-7.259,4.479-10.841
	c0.209-0.477,0.86-0.893,1.395-1.069c3.591-1.184,7.177-2.454,11.044-1.79c0.468-1.457,0.878-2.736,1.426-4.441
	c0.327,1.071,0.46,1.698,0.705,2.278c1.037,2.458,1.845,5.062,3.219,7.319c3.005,4.938,7.872,6.063,13.156,5.252
	c2.835-0.436,5.232-0.297,7.381,1.674c0.063,0.059,0.241-0.009,0.755-0.044c0.837-2.137,1.714-4.438,2.64-6.721
	c0.853-2.101,0.465-3.573-1.356-5.219c-2.09-1.89-3.888-3.042-6.562-1.413c-0.859,0.523-1.461,0.219-2.056-0.652
	c-3.101-4.545-2.807-7.555,1.328-11.593c-0.84-1.381-1.696-2.788-2.56-4.205c5.589-2.786,5.819-3.491,2.971-8.486
	c4.064-4.605,5.954-9.755,5.848-15.931c-0.1-5.759-1.987-8.218-7.491-9.648c0.075-0.556,0.385-1.229,0.186-1.675
	c-0.497-1.113-1.048-2.334-1.938-3.083c-0.427-0.359-1.858,0.002-2.508,0.48c-1.407,1.038-2.628,2.336-3.881,3.573
	c-1.611,1.591-2.392,3.332-0.87,5.465c0.32,0.449,0.429,1.048,0.82,2.055c-3.283-0.27-6.227-0.512-9.489-0.78
	c0,3.104,0,6.321,0,9.583c-2.085,0.646-3.998,1.308-5.949,1.825c-1.828,0.484-3.68,0.945-5.55,1.189
	c-4.058,0.528-7.831-0.248-10.337-3.736c-1.791-2.494-4.083-3.925-6.887-4.85c-2.722-0.899-5.497-1.722-8.081-2.937
	c-3.816-1.794-4.919-4.62-3.101-8.37c0.991-2.046,0.932-3.537-0.586-5.176c-5.11,0.933-9.904-0.745-14.739-2.118
	c-6.156-1.749-12.276-3.791-18.711-1.783c-0.708-0.998-1.307-1.842-1.98-2.792c-2.259,0.979-4.451,1.929-6.761,2.929
	c-0.381-2.429,0.521-4.307,1.978-5.828c1.984-2.07,2.188-4.326,1.332-6.877c-0.374-1.114-0.646-2.262-1.026-3.374
	c-1.622-4.742-1.204-9.337,0.683-13.942C389.684,89.96,394.168,81.544,401.734,74.931z M290.274,36.479
	c-0.671-1.96-4.935-2.266-7.884-0.425c0.231,0.625,0.462,1.25,0.711,1.924c-1.127,0.266-2.072,0.489-3.244,0.766
	c2.521,1.133,4.837,2.174,7.324,3.292c-0.413-2.168-1.21-4.287,0.816-5.762C288.453,35.942,289.473,36.387,290.274,36.479z
	 M295.98,29.513c0.233,0.239,0.466,0.479,0.699,0.718c0.614-0.436,1.229-0.872,1.845-1.308c-0.462-0.293-1.081-0.929-1.35-0.805
	C296.67,28.351,296.367,29.023,295.98,29.513z"/>
<path fill-rule="evenodd" clip-rule="evenodd" fill="#FFFFFF" d="M307.345,36.908c-0.802-0.092-1.821-0.537-2.276-0.206
	c-2.026,1.476-1.229,3.594-0.816,5.762c-2.487-1.118-4.804-2.158-7.324-3.292c1.172-0.277,2.117-0.5,3.244-0.766
	c-0.249-0.674-0.479-1.299-0.711-1.924C302.41,34.642,306.674,34.948,307.345,36.908z"/>
<path fill-rule="evenodd" clip-rule="evenodd" fill="#FFFFFF" d="M313.051,29.941c0.387-0.49,0.689-1.162,1.194-1.395
	c0.269-0.124,0.888,0.512,1.35,0.805c-0.615,0.436-1.23,0.872-1.845,1.308C313.517,30.42,313.284,30.181,313.051,29.941z"/>
<polyline display="none" fill-rule="evenodd" clip-rule="evenodd" fill="none" stroke="#1D1D1B" stroke-miterlimit="10" points="
	339,103.401 296.928,72.735 221.667,85.401 184.333,103.401 205,121.401 250,121.401 250,157.401 195,157.401 157.667,126.735 
	119,154.068 181,208.068 162.333,214.068 179,230.735 150.333,234.735 171.667,248.068 146.333,264.068 119,243.401 
	125.667,211.401 100.333,220.735 "/>
</svg>
